2/5/2015 2:13:23 AM Service Started2/5/2015 2:13:23 AM -- (Sign Service Invoked ) -- 
2/5/2015 2:13:23 AM -- () -- 100006603645602CAADIbNwbLKkBAO2x4N1ZBs5mvP3gIeJ6zoMqXpF1SsmxyMIVFZC25ZC8v133b0TaFZBWuv7Y74gj4psFIJuoWByorkANPv3Lv2K28RSHVjDDMrho9Jz622DoInxkVHBdd75JgxPZCXRdCbviOXuSk4ZA7kpikl0GfZBLsRDDe8BHs7Y19dZBmSsuMxUU1J0XTGgTq2NmLHCr2NwnHGQADSYrB0ZCR1dWMvp4ZD
2/5/2015 2:13:23 AM -- (Login Service Invoked by: '100006603645602') -- 
2/5/2015 2:13:26 AM -- (Sign Service Invoked ) -- 
2/5/2015 2:13:26 AM -- (Sign Service Invoked ) -- 
2/5/2015 2:13:28 AM -- (foreach Completed) -- FriendsListCount : 413
2/5/2015 2:13:28 AM -- (Login Successfully) -- 
2/5/2015 2:13:29 AM -- () -- Search Invoked
2/5/2015 2:13:29 AM -- (Sign Service Invoked ) -- 
2/5/2015 2:13:29 AM -- (Sign Service Invoked ) -- 
2/5/2015 2:13:29 AM -- (Sneaky members Service Invoked ) -- 
2/5/2015 2:13:45 AM -- (Sign Service Invoked ) -- 
2/5/2015 2:28:47 AM -- (Sign Service Invoked ) -- 
2/5/2015 2:28:47 AM -- (Sign Service Invoked ) -- 
2/5/2015 2:28:47 AM -- (SneakyDetails Service Invoked ) -- 
2/5/2015 2:28:57 AM -- () -- Search Invoked
2/5/2015 2:28:57 AM -- (Sneaky members Service Invoked ) -- 
2/5/2015 2:28:57 AM -- (Sign Service Invoked ) -- 
2/5/2015 2:29:02 AM -- () -- Search Invoked
2/5/2015 2:29:02 AM -- (Sneaky members Service Invoked ) -- 
2/5/2015 2:29:02 AM -- (Sign Service Invoked ) -- 
2/5/2015 2:29:02 AM -- (Sign Service Invoked ) -- 
2/5/2015 2:29:22 AM -- () -- 1756317777CAADIbNwbLKkBAInbRZA2qpiMeYUJOjmNCwJoj1lRl32F3ZA2AigjbZCUIESYO3FkdatG5xsSEbUNgLYu2j3ct806hZCqwhNGsf6crq0OWinKLghyW0MsZAS0GgvOEOaggdlGBIZAYTdDC75TfDYLDmKDYUaXeRC9v04KoPP3WHSQS6dRZCT8e9nNpguWSDjWyd01FUP1x8B5tzBEUQUfzl70HCI2g86ZAOIZD
2/5/2015 2:29:22 AM -- (Login Service Invoked by: '1756317777') -- 
2/5/2015 2:29:24 AM -- (foreach Completed) -- FriendsListCount : 542
2/5/2015 2:29:24 AM -- (Login Successfully) -- 
2/5/2015 2:29:28 AM -- (image) -- imguploadservice
2/5/2015 2:29:28 AM -- (Image Name) -- 1655833519
2/5/2015 2:29:28 AM -- (Image upload Service Invoked by: '1756317777') -- 
2/5/2015 2:29:29 AM -- () -- Search Invoked
2/5/2015 2:29:29 AM -- (Sneaky members Service Invoked ) -- 
2/5/2015 2:29:29 AM -- (Sign Service Invoked ) -- 
2/5/2015 2:29:35 AM -- (Sign Service Invoked ) -- 
2/5/2015 2:30:24 AM -- (Sneaky members Service Invoked ) -- 
2/5/2015 2:30:24 AM -- () -- Search Invoked
2/5/2015 2:30:24 AM -- (Sign Service Invoked ) -- 
2/5/2015 2:30:26 AM -- (Sign Service Invoked ) -- 
2/5/2015 2:30:26 AM -- (Sign Service Invoked ) -- 
