1/7/2015 12:30:22 AM Service Started1/7/2015 12:30:22 AM -- () -- 1756317777CAADIbNwbLKkBAGGjKmQ2VOBCZARgaZAI9IahXWZAkaHFZAfH4kOt9zzr8PXZCjZCSxTuQYlahGYZCHXnZB1eZBEKpz07iBaj5n86XSmJ8oFDBY8o1Ym0PjUa8DQoKXPfEIvFxGqkQ5r92xSCxFtNY9AnLVP9TMtKj23vUIneZAIqDg4QNHZCbZBB2TY6tIg4rXvGGGhF7sLZCfxZCYZBafXmv45f5Rpy2r41JZCIcYEZD
1/7/2015 12:30:22 AM -- (Login Service Invoked by: '1756317777') -- 
1/7/2015 12:30:22 AM -- (Sign Service Invoked ) -- 
1/7/2015 12:30:22 AM -- (Sign Service Invoked ) -- 
1/7/2015 12:30:22 AM -- (Sign Service Invoked ) -- 
1/7/2015 12:30:23 AM -- (Sign Service Invoked ) -- 
1/7/2015 12:30:23 AM -- (Sign Service Invoked ) -- 
1/7/2015 12:30:23 AM -- (Sign Service Invoked ) -- 
1/7/2015 12:30:23 AM -- (Sign Service Invoked ) -- 
1/7/2015 12:30:24 AM -- (Sign Service Invoked ) -- 
1/7/2015 12:30:29 AM -- (Sign Service Invoked ) -- 
1/7/2015 12:30:30 AM -- (foreach Completed) -- FriendsListCount : 541
1/7/2015 12:30:30 AM -- (Login Successfully) -- 
