12/21/2014 11:37:32 PM Service Started12/21/2014 11:37:32 PM -- (Sign Service Invoked ) -- 
12/21/2014 11:37:33 PM -- (Sign Service Invoked ) -- 
12/21/2014 11:37:33 PM -- (Sign Service Invoked ) -- 
