12/27/2014 1:06:00 AM Service Started12/27/2014 1:06:00 AM -- () -- 10205692675863971CAADIbNwbLKkBAD8WWGkuFw908ZAFSpSUMGS2bd3o970kpSPDDQljhR1KRI9iAFeJJlJOSnCfy9UXqdElgXiwwPWAe2kZAECwCtUcn0A4WwZChomCe9VdpcHZBMe5vw6Ov8TSI19rIW4IG9TLC97MnFmXcIKKjXcqBtvai7nHOR8ZBZA5QZAN8q1ztbPbgySaLksxm4ZAfeZCX3hXrpy3C5sHS
12/27/2014 1:06:00 AM -- (Login Service Invoked by: '10205692675863971') -- 
12/27/2014 1:06:00 AM -- (Sign Service Invoked ) -- 
12/27/2014 1:06:00 AM -- (Sign Service Invoked ) -- 
12/27/2014 1:06:00 AM -- (Sign Service Invoked ) -- 
12/27/2014 1:06:01 AM -- (Sign Service Invoked ) -- 
12/27/2014 1:06:01 AM -- (foreach Completed) -- FriendsListCount : 5
12/27/2014 1:06:01 AM -- (Login Successfully) -- 
