1/30/2015 2:41:34 AM Service Started1/30/2015 2:41:34 AM -- (Sign Service Invoked ) -- 
1/30/2015 2:41:34 AM -- (Sign Service Invoked ) -- 
1/30/2015 2:41:34 AM -- (Sign Service Invoked ) -- 
1/30/2015 2:41:34 AM -- () -- 668750419CAADIbNwbLKkBABcfP71ZBIOjRr0aw6lTr7e9t7mQwCj4uHA66lUNR0hzQOmCWWLEZB3fQX6dgjgZCZAvlOFKVD7Xf4GnLDVkN2CAyx10ZA530Ek3xy8AIloONI7kpZAZAQab80flAdKSaWzcZBc0Bk5X1UT7DH7HWlkqmKcqfTZCvdEeSbY8rol4pj9tHuCvWH16c6ZCTx73ZAB2cZA2n60Yyy69IeNVnaJJCnsZD
1/30/2015 2:41:34 AM -- (Login Service Invoked by: '668750419') -- 
1/30/2015 2:41:34 AM -- (Sign Service Invoked ) -- 
1/30/2015 2:41:34 AM -- (Sign Service Invoked ) -- 
1/30/2015 2:41:37 AM -- (foreach Completed) -- FriendsListCount : 168
1/30/2015 2:41:37 AM -- (Login Successfully) -- 
1/30/2015 2:41:37 AM -- () -- Search Invoked
1/30/2015 2:41:37 AM -- (Sneaky members Service Invoked ) -- 
1/30/2015 2:41:37 AM -- (Sign Service Invoked ) -- 
1/30/2015 2:41:37 AM -- (Sign Service Invoked ) -- 
1/30/2015 2:41:41 AM -- (SneakyDetails Service Invoked ) -- 
1/30/2015 2:41:41 AM -- (Sign Service Invoked ) -- 
1/30/2015 2:41:41 AM -- (Sign Service Invoked ) -- 
1/30/2015 2:41:46 AM -- (Sneaky members Service Invoked ) -- 
1/30/2015 2:41:46 AM -- () -- Search Invoked
1/30/2015 2:41:46 AM -- (Sign Service Invoked ) -- 
1/30/2015 2:41:50 AM -- (Sign Service Invoked ) -- 
1/30/2015 2:41:50 AM -- (Sign Service Invoked ) -- 
1/30/2015 6:37:51 AM -- (Sign Service Invoked ) -- 
1/30/2015 6:37:51 AM -- (Sign Service Invoked ) -- 
1/30/2015 6:37:51 AM -- () -- 100006603645602CAADIbNwbLKkBAO2x4N1ZBs5mvP3gIeJ6zoMqXpF1SsmxyMIVFZC25ZC8v133b0TaFZBWuv7Y74gj4psFIJuoWByorkANPv3Lv2K28RSHVjDDMrho9Jz622DoInxkVHBdd75JgxPZCXRdCbviOXuSk4ZA7kpikl0GfZBLsRDDe8BHs7Y19dZBmSsuMxUU1J0XTGgTq2NmLHCr2NwnHGQADSYrB0ZCR1dWMvp4ZD
1/30/2015 6:37:51 AM -- (Login Service Invoked by: '100006603645602') -- 
1/30/2015 6:37:56 AM -- (foreach Completed) -- FriendsListCount : 413
1/30/2015 6:37:56 AM -- (Login Successfully) -- 
1/30/2015 6:37:58 AM -- () -- Search Invoked
1/30/2015 6:37:58 AM -- (Sneaky members Service Invoked ) -- 
1/30/2015 6:37:58 AM -- (Sign Service Invoked ) -- 
1/30/2015 6:37:59 AM -- (Sign Service Invoked ) -- 
1/30/2015 6:38:10 AM -- (Sign Service Invoked ) -- 
1/30/2015 6:38:10 AM -- (Sign Service Invoked ) -- 
