12/20/2014 3:24:05 AM Service Started12/20/2014 3:24:05 AM -- (Sign Service Invoked ) -- 
12/20/2014 3:24:05 AM -- () -- 10205692675863971CAADIbNwbLKkBAMYScoOeNlzvBAkk6ygSaalnlkboVqrnOLFH1EHL02ur7cuZAmJHcpTBnI9JmCZCNOMOGZBjvtZCzZBkaoAS35ZA99E5Yzelx3HIZCp1Vp4VuLrngZALor3wYRoJ4la1cqPZBMGDaHhFvb5d9v9Fpe4tHTtbRdeDHU51tvmMLSUoONXOZBG3A2LNMZD
12/20/2014 3:24:05 AM -- (Login Service Invoked by: '10205692675863971') -- 
12/20/2014 3:24:06 AM -- (foreach Completed) -- FriendsListCount : 5
12/20/2014 3:24:06 AM -- (Login Successfully) -- 
12/20/2014 3:24:07 AM -- () -- Search Invoked
12/20/2014 3:24:07 AM -- (Sneaky members Service Invoked ) -- 
12/20/2014 3:24:59 AM -- () -- Search Invoked
12/20/2014 3:24:59 AM -- (Sneaky members Service Invoked ) -- 
